{"installed":{
	"client_id":"525080435761-jhhe2quegijqb77tufam9mjqtgiltnnc.apps.googleusercontent.com",
	"project_id":"expanded-goal-172701",
	"auth_uri":"https://accounts.google.com/o/oauth2/auth",
	"token_uri":"https://accounts.google.com/o/oauth2/token",
	"auth_provider_x509_cert_url":"https://www.googleapis.com/oauth2/v1/certs",
	"client_secret":"WeU0LOWlp0flN27M6bxtNsdZ",
	"redirect_uris":["urn:ietf:wg:oauth:2.0:oob","http://localhost"]
}}